id	T2+D200	T8+D200	T24+D200	T2+D1000	T8+D1000	T24+D1000	T2+D5000	T8+D5000	T24+D5000
7535	0.02534935	0.077681838	-0.179610692	0.043212065	-0.072288718	-0.121322655	0.071116319	0.379976462	0.054712515
27040	0.065908919	0.081641072	0.117147568	0.040484417	-0.066626212	0.049822785	0.021884517	0.434626419	0.250410113
5335	0.040706166	0.014213479	-0.034789412	0.069421569	0.010691068	0.080970742	0.095403128	0.168320889	0.217452027
6850	-0.114136283	0.122966325	-0.023390261	0.036855794	0.117453275	0.109026648	-0.093452367	0.187531457	-0.083860532
4067	-0.050762178	-0.032215866	0.041424882	0.126128984	-0.034576384	0.11169107	0.096570389	0.104300518	0.605262121
29760	-0.014434196	-0.239481293	0.038559773	-0.084363212	-0.342087039	0.024735092	-0.041274397	-0.6977367	-1.308315569
695	-0.103998226	0.118520446	0.055024495	0.158044073	-0.057691106	-0.20139519	0.325342298	0.277446579	-0.103878676
5336	-0.011042335	0.001346545	0.067455418	0.035634382	0.172266247	0.349352143	0.08741745	0.288717272	0.713935012
84433	-0.251496909	0.066956748	-0.109117294	-0.017322169	0.127599364	-0.060840324	-0.115128713	0.384005943	0.016963086
8915	-0.007695337	-0.050834093	-0.126245149	-0.197501198	0.263126376	-0.002375558	-0.421879351	0.628744182	0.068420388
10892	-0.027618518	0.082201254	0.10263558	-0.09076632	0.236304802	0.151163699	-0.012251816	-0.416883494	0.433964809
3553	0.012710424	-0.010271466	-0.122998712	0.000780982	0.026518431	0.084852986	0.11362611	0.22262944	-0.005234301
3554	0.029980023	0.041842115	-0.006454903	-0.087982032	-0.014587293	0.107738559	-0.091040268	-0.760198477	0.158901791
4615	0.008731065	-0.056405605	-0.06939647	0.05242885	-0.21213756	-0.127505615	0.030988955	-0.53776671	-0.381790205
3654	-0.075097959	-0.049722768	-0.016216379	0.168667164	-0.051825435	-0.225722106	0.06174586	0.163702102	-0.30314984
51135	-0.070944692	-0.042417535	0.04842286	-0.089711561	-0.010511952	0.074401706	-0.017444227	-0.007869547	0.287871137
7189	-0.116345893	0.063038028	-0.086824789	-0.137020624	0.292149051	0.074112325	-0.339837153	0.13310428	-0.012904957
7124	0.145765478	0.068601385	-0.152195053	0.23016065	0.003600215	-0.122517149	0.108904624	0.285898259	-0.165424103
7132	-0.018133699	-0.115807232	-0.024644069	-0.007132719	-0.301986093	-0.172464397	-0.039657829	-1.417487368	-0.321781438
8737	-0.054414863	-0.050543466	-0.006787413	-0.019203144	0.335227815	0.283057193	-0.115165842	0.005143432	0.515072595
8717	-0.021725638	0.04622661	-0.032187448	-0.018492078	0.019002034	0.04719598	0.020585189	0.083847751	0.370688463
7186	-0.086990406	0.027343484	0.031469514	0.132825185	-0.012068745	0.00198802	0.079874321	-0.591221522	-0.262703613
7188	0.174713028	-0.072340075	-0.062594859	0.01814367	-0.173573443	-0.095101223	0.082142581	-0.973069354	-0.11996843
329	-0.01964339	0.11814889	0.03279678	-0.15410041	0.38008178	-0.09811234	-0.31166214	-0.537601215	-0.10911528
330	0.055703202	-0.01077215	-0.003871916	-0.102199887	-0.10349044	-0.055703671	-0.177239179	-1.659467855	-1.166367085
23586	-0.06925807	-0.064390635	0.043649283	-0.099645723	-0.16505935	-0.185901697	-0.029637336	-1.147025991	-0.601276395
7706	-0.084406555	0.050691591	0.032953834	-0.0522455	0.227617735	0.168872163	-0.022905262	-0.098162806	0.107658958
3929	-0.006414275	-0.00815288	-0.06309433	0.04261691	-0.05049629	-0.24249076	0.031484	0.228992105	-0.75371478
929	-0.072169045	-0.0371479	-0.115026867	-0.048316705	-0.149995712	-0.212658705	0.044292705	0.08126451	-0.699487864
7099	-0.080212619	-0.048111793	0.128986766	-0.302388663	-0.228663873	0.121096982	-0.398273954	-1.604434836	-0.053442482
23643	0.206410529	-0.050055296	-0.091389419	0.170267721	-0.250754492	-0.320754403	0.130314642	0.223152535	-0.35581305
114609	0.037022234	0.067002836	0.037808975	0.071694985	0.13844823	-0.002033905	0.055239118	-0.209906183	0.166424265
148022	0.000265495	-0.035330043	-0.037123788	-0.085802224	-0.009197327	-0.017676675	-0.540094912	-1.01578444	-0.232424113
959	0.125875338	-0.061508665	-0.01041292	0.039404922	-0.098002743	0.025788138	0.147809131	0.345434952	-0.145009232
958	0.035334094	0.040381192	0.029225362	0.006372908	0.033291763	0.095614096	0.112110279	0.360713301	0.055681702
7187	-0.098839781	-0.049077456	0.003852064	-0.050454825	0.022267145	0.040793105	-0.106535418	-0.178079147	0.040841282
8600	-0.055145108	-0.044746722	-0.048660364	-0.152330883	-0.239106817	-0.242913095	-0.328591207	-2.524249319	-0.63968517
8792	-0.098640933	-0.123833487	-0.004225865	0.029851125	0.021452074	0.439870805	-0.152272637	-0.0382374	0.930245947
4049	0.050770017	0.124540437	0.069286979	0.02190966	0.011969203	-0.186171927	-0.00436301	0.341339372	0.075456737
4050	-0.113399895	-0.01273796	-0.206995483	-0.186559316	-0.069405165	-0.409145553	-0.195644583	0.222908557	-1.217968532
8740	0.009477271	0.064288501	0.075906066	0.032045357	0.052604099	0.154255402	0.134092979	0.145278907	-0.474958436
4055	-0.06965747	0.028533297	-0.025381847	-0.019138386	-0.04797015	-0.125143637	0.120974071	0.033696785	-0.168734179
9020	-0.171101681	-0.02618098	-0.032445078	-0.064875544	0.202517581	0.073195254	-0.114750374	-0.108038907	0.870159419
6885	-0.066363971	0.057626827	0.091667698	0.012773903	0.143060107	0.114176776	-0.027094854	0.201299509	0.085023756
10454	0.01675998	-0.226363595	0.008992736	0.139803086	-0.127769399	0.156514717	-0.094998631	-0.364331271	-0.070390554
23118	-0.076591683	0.030079129	0.103143714	0.030835918	0.079620406	0.115438938	-0.125667975	-0.046309968	0.524556637
257397	0.040656149	-0.061935898	0.093526386	0.024032689	-0.149395684	-0.000807823	-0.049073041	-0.0355106	0.073689169
10673	0.033121336	-0.262465799	0.189121539	0.035144102	0.049897641	0.12652679	0.276107713	0.807629837	-0.388848491
115650	0.110854088	0.054883794	0.073032672	0.298427317	-0.09603937	-0.084734584	0.043399428	0.304900058	-0.126086148
1147	0.170088059	0.00744813	0.105853912	-0.104086034	0.14570515	0.268173586	-0.041818471	-0.043525351	0.340195242
3551	-0.042650582	-0.000785751	0.06329408	0.103783109	-0.009119147	0.085245036	0.031226962	-0.217016757	0.212870463
51588	-0.142044946	0.074088009	0.067555165	0.015178578	0.079478664	0.175381241	-0.055910599	-0.00625799	0.202481142
7329	-0.008214961	0.003648799	0.027500607	0.001801739	0.042196355	0.126934615	0.052581194	0.081240566	0.033979667
472	-0.015027432	-0.112271515	-0.003020601	-0.002486292	0.066809555	0.027044582	0.06746596	-0.118806944	-0.280152136
55367	0.030431083	0.010968428	0.072181508	-0.001093157	0.021455073	0.087193267	0.056817684	-0.017353285	0.132922987
23085	-0.050847188	-0.072098722	0.097046218	0.127558372	-0.042525574	0.158148016	0.090601489	-0.192939274	0.477863146
4790	-0.139756323	-0.038450362	-0.019943196	-0.029230853	0.048532674	-0.043265193	-0.090214255	0.032342906	-0.236214062
5970	-0.09458772	-0.02662169	-0.038504729	0.098020687	-0.049539007	-0.108955825	-0.091531815	-0.532848744	0.119885664
8837	0.017761422	0.04168629	-0.00961037	-0.017560128	-0.047857762	0.052654112	-0.100665418	-0.80769745	0.197261684
331	0.03493639	-0.017867777	-0.01515517	-0.084564393	0.180524126	-0.159463694	-0.179997423	-0.457997022	-0.136539462
598	-0.038610337	-0.003586764	0.025242028	0.153732964	0.025946661	-0.067515844	-0.063667522	-0.966978809	-0.023946131
596	-0.069485465	0.099395375	-0.03663175	-0.093785127	0.065130004	0.112653478	-0.116423888	0.203658022	0.098625228
7185	-0.095653481	-0.052060058	0.16508735	0.053465087	-0.007416273	0.003245699	-0.07284629	-1.741685667	-0.315401059
597	-0.053994413	0.032232059	0.238911955	-0.222036838	-0.580428524	0.198331282	-0.392513637	-0.613103147	-0.82509262
4791	-0.094416441	-0.108322112	0.06127383	0.174307592	0.060485497	0.097651496	-0.100395771	-0.223304919	0.697468874
3576	0.150434464	-0.144605476	0.168291331	-0.241390518	-0.347162672	0.303163523	-0.46932604	-0.902844057	-1.424339846
7128	-0.090160849	-0.059472383	-0.080422427	-0.45117832	-0.124995342	-0.222631716	-0.800125663	-0.417826041	-1.260276443
5743	0.05296237	-0.163402627	-0.085784107	0.192607533	-0.207495213	0.001709707	0.055252203	-0.018060162	-0.143119905
6351	0.037987046	0.211619411	0.080041841	-0.005862883	0.13277777	0.107598749	0.275955638	0.724107663	0.085317678
7412	0.026256935	-0.067428807	0.088758062	-0.158226054	-0.114011534	0.291953208	-0.267989511	-0.101338624	0.243641466
5328	-0.145533551	0.052114804	-0.008360036	0.086208255	0.078708637	0.086972882	-0.056147203	-0.053460392	-0.188476222
1457	0.002744527	-0.015387188	0.032979717	0.107928275	0.054603851	0.151186763	0.046704881	0.029245876	0.550485125
1459	-0.014530878	-0.037622598	0.0024485	-0.059074514	0.124773448	-0.007834286	-0.07417526	0.309413446	-0.150164255
1460	-0.10419349	-0.0504209	-0.020509015	0.038061345	-0.16190108	-0.085511725	0.023472035	-0.00017744	-0.54768745
6357	0.134282024	0.071750852	-0.076417784	0.012334926	-0.160236953	-0.117892605	0.104404369	0.142605815	-0.179714222
6363	0.033966234	0.02359655	-0.122430909	0.036797535	0.051377153	-0.373353038	-0.007651543	0.396513551	-0.06134952
6366	0.054284476	-0.000407452	0.15998775	-0.011867751	-0.039245855	0.006620583	0.107514312	0.186546822	-0.048334093
6387	0.055864915	0.009621915	-0.075441918	0.091530758	-0.056645298	-0.042447379	0.063130441	0.183983973	0.091817448
3383	-0.093706641	-0.038730817	0.070325508	0.049583086	-0.147318383	0.087207335	-0.058906125	0.028877039	-1.414512915
142	0.03699753	-0.02945782	0.03365407	0.05868014	-0.042975555	-0.06872224	0.0380741	-0.14443163	-0.251087715
2920	0.036082948	-0.27513571	-0.187542615	-0.374816755	-0.974137127	-0.648700138	-0.285554235	-2.421692926	-3.168993914
5579	0.076987195	0.091931231	0.073933295	0.03281809	0.045640897	-0.002511949	0.092324043	0.13661667	0.061413636
4616	-0.016319465	0.03244514	-0.012319832	-0.119111265	0.120407975	-0.003574235	-0.11511174	1.40149042	0.469001763
4792	-0.005332695	0.014749205	0.021199935	0.097409705	0.204641855	0.047379705	-0.307783595	0.04077825	-0.439123915
5971	-0.178972759	0.071012867	-0.013148605	0.100906021	0.193530852	0.075502906	-0.003614023	0.175122815	0.392856036
3932	0.159834665	0.17878962	0.014695038	0.146493808	0.05922013	-0.072529345	0.285117722	0.281158103	0.021055982
